…
``` r
#continent factor with 5 levels

gapminder_oil_2007 = gapminder_oil_2007 %>% 
  mutate(continent = fct_reorder(country, tonnes_per_capita_2007))

gapminder_oil_2007
```

    ## # A tibble: 53 x 5
    ##    country           pop gdpPercap continent  tonnes_per_capita_2007
    ##    <chr>           <int>     <dbl> <fct>                       <dbl>
    ##  1 Algeria      33333216     6223. Algeria                    0.381 
    ##  2 Argentina    40301927    12779. Argentina                  0.589 
    ##  3 Australia    20434176    34435. Australia                  1.98  
    ##  4 Austria       8199783    36126. Austria                    1.61  
    ##  5 Bangladesh  150448339     1391. Bangladesh                 0.0315
    ##  6 Brazil      190010647     9066. Brazil                     0.526 
    ##  7 Bulgaria      7322858    10681. Bulgaria                   0.692 
    ##  8 Canada       33390141    36319. Canada                     3.12  
    ##  9 Chile        16284741    13172. Chile                      0.970 
    ## 10 China      1318683096     4959. China                      0.275 
    ## # ... with 43 more rows
…
